%YAML 1.1
%TAG !u! tag:unity3d.com,2011:
--- !u!1001 &82268858988758034
PrefabInstance:
  m_ObjectHideFlags: 0
  serializedVersion: 2
  m_Modification:
    m_TransformParent: {fileID: 0}
    m_Modifications:
    - target: {fileID: 7171865568949618199, guid: 3c71f1fa464664b4194e79dd319bcafa,
        type: 3}
      propertyPath: m_LocalPosition.x
      value: 0
      objectReference: {fileID: 0}
    - target: {fileID: 7171865568949618199, guid: 3c71f1fa464664b4194e79dd319bcafa,
        type: 3}
      propertyPath: m_LocalPosition.y
      value: 0
      objectReference: {fileID: 0}
    - target: {fileID: 7171865568949618199, guid: 3c71f1fa464664b4194e79dd319bcafa,
        type: 3}
      propertyPath: m_LocalPosition.z
      value: 0
      objectReference: {fileID: 0}
    - target: {fileID: 7171865568949618199, guid: 3c71f1fa464664b4194e79dd319bcafa,
        type: 3}
      propertyPath: m_LocalRotation.x
      value: 0
      objectReference: {fileID: 0}
    - target: {fileID: 7171865568949618199, guid: 3c71f1fa464664b4194e79dd319bcafa,
        type: 3}
      propertyPath: m_LocalRotation.y
      value: 0
      objectReference: {fileID: 0}
    - target: {fileID: 7171865568949618199, guid: 3c71f1fa464664b4194e79dd319bcafa,
        type: 3}
      propertyPath: m_LocalRotation.z
      value: 0
      objectReference: {fileID: 0}
    - target: {fileID: 7171865568949618199, guid: 3c71f1fa464664b4194e79dd319bcafa,
        type: 3}
      propertyPath: m_LocalRotation.w
      value: 1
      objectReference: {fileID: 0}
    - target: {fileID: 7171865568949618199, guid: 3c71f1fa464664b4194e79dd319bcafa,
        type: 3}
      propertyPath: m_RootOrder
      value: 0
      objectReference: {fileID: 0}
    - target: {fileID: 7171865568949618199, guid: 3c71f1fa464664b4194e79dd319bcafa,
        type: 3}
      propertyPath: m_LocalEulerAnglesHint.x
      value: 0
      objectReference: {fileID: 0}
    - target: {fileID: 7171865568949618199, guid: 3c71f1fa464664b4194e79dd319bcafa,
        type: 3}
      propertyPath: m_LocalEulerAnglesHint.y
      value: 0
      objectReference: {fileID: 0}
    - target: {fileID: 7171865568949618199, guid: 3c71f1fa464664b4194e79dd319bcafa,
        type: 3}
      propertyPath: m_LocalEulerAnglesHint.z
      value: 0
      objectReference: {fileID: 0}
    - target: {fileID: 7171865568949618199, guid: 3c71f1fa464664b4194e79dd319bcafa,
        type: 3}
      propertyPath: m_AnchoredPosition.x
      value: 0
      objectReference: {fileID: 0}
    - target: {fileID: 7171865568949618199, guid: 3c71f1fa464664b4194e79dd319bcafa,
        type: 3}
      propertyPath: m_AnchoredPosition.y
      value: 0
      objectReference: {fileID: 0}
    - target: {fileID: 7171865568949618199, guid: 3c71f1fa464664b4194e79dd319bcafa,
        type: 3}
      propertyPath: m_SizeDelta.x
      value: 100
      objectReference: {fileID: 0}
    - target: {fileID: 7171865568949618199, guid: 3c71f1fa464664b4194e79dd319bcafa,
        type: 3}
      propertyPath: m_SizeDelta.y
      value: 100
      objectReference: {fileID: 0}
    - target: {fileID: 7171865568949618199, guid: 3c71f1fa464664b4194e79dd319bcafa,
        type: 3}
      propertyPath: m_AnchorMin.x
      value: 0.5
      objectReference: {fileID: 0}
    - target: {fileID: 7171865568949618199, guid: 3c71f1fa464664b4194e79dd319bcafa,
        type: 3}
      propertyPath: m_AnchorMin.y
      value: 0.5
      objectReference: {fileID: 0}
    - target: {fileID: 7171865568949618199, guid: 3c71f1fa464664b4194e79dd319bcafa,
        type: 3}
      propertyPath: m_AnchorMax.x
      value: 0.5
      objectReference: {fileID: 0}
    - target: {fileID: 7171865568949618199, guid: 3c71f1fa464664b4194e79dd319bcafa,
        type: 3}
      propertyPath: m_AnchorMax.y
      value: 0.5
      objectReference: {fileID: 0}
    - target: {fileID: 7171865568949618199, guid: 3c71f1fa464664b4194e79dd319bcafa,
        type: 3}
      propertyPath: m_Pivot.x
      value: 0.5
      objectReference: {fileID: 0}
    - target: {fileID: 7171865568949618199, guid: 3c71f1fa464664b4194e79dd319bcafa,
        type: 3}
      propertyPath: m_Pivot.y
      value: 0.5
      objectReference: {fileID: 0}
    - target: {fileID: 7171865568949618198, guid: 3c71f1fa464664b4194e79dd319bcafa,
        type: 3}
      propertyPath: m_Name
      value: PRE_UI_Boredom
      objectReference: {fileID: 0}
    - target: {fileID: 4011592574337031949, guid: 3c71f1fa464664b4194e79dd319bcafa,
        type: 3}
      propertyPath: _data.Array.data[0]._smartVar
      value: 
      objectReference: {fileID: 11400000, guid: 2bca6e0c9290ec5468de4637b94842b2,
        type: 2}
    - target: {fileID: 7171865569018804155, guid: 3c71f1fa464664b4194e79dd319bcafa,
        type: 3}
      propertyPath: m_Color.r
      value: 0
      objectReference: {fileID: 0}
    - target: {fileID: 7171865569018804155, guid: 3c71f1fa464664b4194e79dd319bcafa,
        type: 3}
      propertyPath: m_Color.g
      value: 0.07107782
      objectReference: {fileID: 0}
    - target: {fileID: 7171865569018804155, guid: 3c71f1fa464664b4194e79dd319bcafa,
        type: 3}
      propertyPath: m_Color.b
      value: 1
      objectReference: {fileID: 0}
    m_RemovedComponents: []
  m_SourcePrefab: {fileID: 100100000, guid: 3c71f1fa464664b4194e79dd319bcafa, type: 3}
